cv32/sim/core/nn_testbench.txt
mkdir -p cobj_dir/logs
./testbench_verilator +vcd \
	"+firmware=../../tests/programs/custom/vector_nn_testbench/vector_nn_testbench.hex" \
	| tee cobj_dir/logs/vector_nn_testbench.log
  scopesDump:
    SCOPE 0x55ceaf1d8258: TOP.tb_top_verilator
    SCOPE 0x55ceaf1d8290: TOP.tb_top_verilator.cv32e40p_tb_wrapper_i.a_top.arith_stage0.pe0.se0
    SCOPE 0x55ceaf1d82c8: TOP.tb_top_verilator.cv32e40p_tb_wrapper_i.a_top.arith_stage0.pe1.se0
    SCOPE 0x55ceaf1d8300: TOP.tb_top_verilator.cv32e40p_tb_wrapper_i.a_top.arith_stage0.pe2.se0
    SCOPE 0x55ceaf1d8338: TOP.tb_top_verilator.cv32e40p_tb_wrapper_i.a_top.arith_stage0.pe3.se0
    SCOPE 0x55ceaf1d8370: TOP.tb_top_verilator.cv32e40p_tb_wrapper_i.a_top.vdec0
    SCOPE 0x55ceaf1d83a8: TOP.tb_top_verilator.cv32e40p_tb_wrapper_i.a_top.vlsu0
    SCOPE 0x55ceaf1d83e0: TOP.tb_top_verilator.cv32e40p_tb_wrapper_i.a_top.vreg0
    SCOPE 0x55ceaf1d8418: TOP.tb_top_verilator.cv32e40p_tb_wrapper_i.ram_i
    SCOPE 0x55ceaf1d8450: TOP.tb_top_verilator.cv32e40p_tb_wrapper_i.ram_i.dp_ram_i
       DPI-EXPORT 0x55cead5a8bbe: read_byte
       DPI-EXPORT 0x55cead5a8bd0: write_byte
    SCOPE 0x55ceaf1d8488: TOP.tb_top_verilator.cv32e40p_tb_wrapper_i.ram_i.read_mux
    SCOPE 0x55ceaf1d84c0: TOP.tb_top_verilator.cv32e40p_tb_wrapper_i.ram_i.unnamedblk1

[cv32e40p_core]: PULP_XPULP =           0, PULP_CLUSTER =           0, FPU           0, PULP_ZFINX           0, NUM_MHPMCOUNTERS           1
finished dumping memory

testbench_vecAdd

Vector A:
   -3    -1   -10    -7   -12     4     8     8    -8    -9    15    15    -5     1    12     9    10     6    -7    -4   -11     7     4   -12   -12 
Vector B:
   -1     5    -8   -12    -7     7    11    14   -16    11     8    -8    -2   -10     4     3   -11     6   -12   -12    15     9    -3   -13    11 

Output:

   -4     4   -18   -19   -19    11    19    22   -24     2    23     7    -7    -9    16    12    -1    12   -19   -16     4    16     1   -25    -1 



testbench_addReduction

Vector A:
   14     0     6    -7    13    14     7   -10    -1   -10     8    -8     5     4     0     4     4    13    10    -3    -1    13    -1   -15     7 

Output: 66



testbench_dotProduct

Vector A:
   -1     9    -8     4     9    12    -8     5   -11    -1    -6    -3   -14   -16   -15    -1     2     1    -6     2 
Vector B:
   -7   -13     0    11    11   -13    -6   -14    -8   -12     9    -2     0     2    -5   -13    -2    -1   -12    -3 

Output: 24



testbench_ReLu

Vector A:
   -7     6   -13   -14     7    -9   -13     9     3     3   -10   -10     1    -6    14   -15    11     9    14   -12 

Output:

    0     6     0     0     7     0     0     9     3     3     0     0     1     0    14     0    11     9    14     0 



testbench_ReLu6

Vector A:
    5    -2   -10    -9   -11     8    13   -12   -10    13    13   -12   -16    -5    10   -13    14    -7    -1    -4 

Output:

    5     0     0     0     0     6     6     0     0     6     6     0     0     0     6     0     6     0     0     0 



testbench_matrix_mult_d8  

Matrix A:

   15     1    12    10   -15     7     8     2    -5   -10     2     1    -2     8    -4 
   14     9     4     7     4   -13   -10    10     3     0     7     7     2     2     5 
   14     2     4     5   -10   -10   -13     9     2    -1    10    -9    -4    -7   -10 
   -5    -6     9    15    10    15   -11     1    -2   -12   -15   -15    -6     8   -11 
  -12    12    -9     8     9    -9    -9    13     9    -6    -1   -15     7    11    13 
   -6     5     0   -12    11     1    -3    15     5    15   -15     8     5     8    -9 
   14     8    10     1    -1   -10    12    -2     5    -6     8    -4    -6    -1    -1 
  -14    -1   -10     5     5     4    12     0   -13    -7   -13    15    14     3     4 
   10    -9     8    -9    -5     0     8     1     0    10    -2   -11    -8     8   -12 
    6    -6    -9     5    10   -13     5     5    15    14     1    -4   -12    -9     7 
  -15     1   -14   -16     6   -11   -16   -12    -3     4    -9    -5    13    -9   -16 
   14     7    13    -5   -12     6   -16    11    15     7   -11   -14    -6   -15    10 
   -8    12    -7   -11    -7    -7     2    -6     2    -1     1    -8     7     4     1 
  -14   -10    -3    13    -3    -3    -7    10    -7     8     7   -11    -9    13    -7 
    4    -6     3    13    15   -12    12   -11   -16     5   -13    -4    -2     4     3 

Matrix B:

  -15   -12     4    -3    10   -12   -13    15   -15    15     2    -1   -14     8    -5 
    3     6     9     4     3     4    -4     5    14   -14    15     6   -13    11   -16 
   -9    -6    15    -4   -15     0   -12     8    -3   -10    10    14     7     0    -6 
   -9     8   -16    -2     6   -10    -4    -9   -13    -9   -13   -12   -13    -4    -6 
  -16    -8    -2   -10   -13    -5    -9     3    12     4     8     7    -7    15     0 
  -15   -15    -3    -3     9   -10     1     1    10     2    -6   -11     1    -4   -15 
   10     4    -3     4    -6    -8    -4     6     2   -15    -9    -5    -5    10    -1 
  -10    14    14    -4    15     8    -3     0    15   -13    -3    -7    -8    -1    15 
    8   -10     8   -12    -6     2   -14    -6    -4    -2     7    -9    -6    15    13 
  -16   -11    15    -9     8   -12     8    -4    15   -10     1    12    -6   -16     8 
    0    -3    -1    10     0   -16     6    11   -15     8    -4   -14   -11     7    -4 
  -12    -7    -6     8    -3    -3     1   -16   -14     4   -13    -3   -10   -15   -13 
    3    -1     0    -7   -12     6    -2    -3    -1   -14   -12     2     4    -9    14 
  -16    13     7   -13   -14    10     9    14     9     9    -3    -2   -13    10     0 
    5    15    -8     3    -1    -8    12     0    10    -1    11   -14     3   -10     2 

Output:

 -128   102    -8   120   127  -128  -128   127  -128    43  -128  -128  -128   127  -128 
 -128  -128   -61  -128  -128  -128    13   127  -128     1  -128   127  -106  -128  -128 
  -80  -128    75    46   -98   -27  -128  -128  -128   127   127   127  -128   127  -128 
 -128   -13  -128  -128   -94   127  -128    76   127   118    26   127   127   127  -128 
  127   127    61  -128  -128   127   127    32   127  -128   127  -128  -128   127   127 
 -128   127   127   127   127  -128   127   121   -24    29    52   -31  -128    58  -128 
 -128   127   127    22   127   127   -99  -128   127  -128   127   127  -128  -128  -128 
  104   127  -128   127  -128   127   127  -128   127  -128  -128  -128   127  -128  -108 
 -128  -128   127  -128    40   -24  -128   127    82   127    68   127    37   127   127 
  -58  -128   -15   127  -128  -128  -127    32  -128   127  -128   -60   -59  -125  -128 
  -60  -128    83    62   -17   127   127   127  -128   127  -128   127   127   -45  -128 
  -71  -128   127  -128   127   127  -128    61   127  -128   127   127   127    64   127 
  127   127   127    78  -128   127   127   127   127  -128   127   127   127   127   127 
 -128  -128   -43   114   127  -101   127  -128   127    76  -128   127   127  -128  -128 
 -128   127  -128    69   127   108   114   127   127   127   127  -128   109   127  -128 



testbench_matrix_add_d8  

Matrix A:

   14    -6     2    12   -10     4     8    15   -16     0    -1     0     4    13     5    10    -2    -2    -3     7   -15 
    8    -9     6   -11    -4    -8    -7    -3    11     3    11    -6     3     7    11   -12    -9   -12    -8    14     3 
   14     5     1   -15    13     5     0    -5    -7     0   -15     8   -10    -1    -2   -12     2    10     8    11   -14 
    6     5     4     5    -5     1    -9   -15    -8   -16    -6    11    -3    -8    -6    -5    10    -8    -6     9   -13 
   -1     4    -6    -7    -9    11   -13    -9    -7   -11    -7   -16    -9     1    -9     9    -7     1    -5    -7     1 
   14   -16     6     6     3     8    15    12    14    -7   -15    -2    13     9    -1   -14   -16   -11   -10    -8    -7 
  -12     1    -3     3   -14    14     7    -6   -16     3   -12     6     0    -1   -16     4   -11    -8    -2   -11    -6 
  -10     2    -4     5   -16     3    -7     7     1    -5     3     7   -10    -5     3    -4    11    14     7     9     1 
   -8    -3    -2    13   -16    10     6     0    -2    15     2    15    -1    -2   -16    -1    14    -5    -5    -5   -15 
   15    -6   -15    -8    11    14    -9    -9     2    -2    10     2    -7   -14     4     1    11     6    -2    -9   -15 
    5    -3    -7   -11     6    -5   -11    -1   -13   -11    -9    -3   -11     4    13     4   -13     2     2    13    -1 
    2    -2    -4     1     6   -15     0    -2     7    -4    -1    -8    -2   -16     7    -6    -7     7    -6     2    -7 
   -1     9     5   -12   -13   -16     2    -7   -13    15   -13     3    -7     0   -16   -15    12   -12    -7    -7   -10 
   -2    13   -14    14   -13    -8   -12    13    -1     5     9     3    -2   -15     2   -16    -1    -2   -16    -2     2 
   -7     4   -13    11    -2     0    12     3    -3     1   -11   -16   -14     2   -10    15     1   -10    -8    -5     3 
   10    15   -14    -2    12     7     5   -11     5    -8    15     2    -3     9     2     3   -14     5     8    14    -4 
   -7     1    11     1   -16   -12     8    -2    14     4    15     7   -14   -10    13    -5     4   -14    -3     6     2 
    1   -13    14     7     4   -15   -14   -12    -9     6     2     5     5    -9    -5    -5    -3    15     7    -4   -12 
    0    -5    12    14   -12    -1    11     1   -15    -7    -6    -3    -1     3   -12    -4    13    -6    13   -13    -6 
    9    10    11     7   -14    -9   -11    11    10     0    -1   -14   -14    -6     9     2    -3     4    -7   -13     1 
    6   -12     8    -1     1    -6   -14    -5    10     4   -14    13   -11   -13     2    10   -12   -14    -5     8   -10 

Matrix B:

    6     3   -13     4   -12    -6   -13    14    -6     4     3     4     0    -6    -5   -11     7    10     2   -10     9 
    9   -10    -2     2    -3    12     2    12     9   -15    12    14   -12     3    13   -14   -15    -6     7   -11     7 
   15    -8   -15    13   -14    -5    -5   -15    -1     0   -10    14    -5    -8    -3    -3    15    -4    14     8     3 
   10    -9     3    14     1   -15    11   -13    -2     5    -5     1    -6    12     1     3   -11   -13    15    11     3 
    1    -4    12    -8    -6    -9    -9    -7   -15   -13    -8     2   -13    10    11     0    -1    -4     5    -1     3 
   -2    13     1    -6    -7    -4     3    10    -7    11    -8    -1    -1   -10    13    -7     7     6   -10    13     9 
    7    -1    -7    -2     0    15     4     5    11     3    -6     6    -2   -10     3    -2    -8   -11     9    13    -6 
    4    -9    11     8     5    -7   -11    -8    10   -12    12    14   -13    -3    13    14     5   -13    15   -12    -6 
    3     2     4    -2    -1    -4    14    -8     4    15    15     3   -10    -2    -5     0    13    14    14    13     5 
   -1   -12     3     6    -3   -14    -6     3    14    12     0   -14   -10   -12    11   -15    -3    15     7    10    11 
   -1    -6    10     0    -9    -2   -11     7   -14    12     5     3    15    -9     2     5    12   -15     5    -6     1 
    3   -10    -4   -16     7    -5     8   -13   -14     0   -16     6     3   -11    -4    -7     8   -16   -12     0   -13 
   14   -10    15     6    -1   -14     5    12    -7   -15     9   -10     6    -2    12     4   -15     3    -8   -14   -14 
   14    12    -8     2     0    -6     7   -11    13     9    -2    15   -13    -2     6     0     0    -9   -11     3   -13 
    7    -1    -3    -7    -8     9   -10    12   -16    -9    13   -12    14     7    -3    -3   -12     8     9     9    -8 
    3    -7    11    11    -6   -16    -6   -16   -16     4    -1   -11     1    14   -12    -1     3    11    -9    -2   -14 
  -13   -15    -1    -3     8     2     6   -15   -14    -4    -3     5    -6     8    13    -2    -2    -9    -5     6    14 
  -12     6    15    -6     6   -13    12     8   -15     6     5   -14    13    15   -14   -14    -3     0    13   -16   -12 
   14    -2   -12     7     7    -9    13    -6     2   -14    -7    14    10    -8     6    14   -14     1   -14    -6     8 
  -13    -7    11    -9    -6    11   -12     2    -7   -13    -8    15   -16    12    -7   -12     1    13    14    -7   -12 
   -5     0    -3   -14   -15   -12     8    12   -15     3    15    12   -16     6   -10   -14    -3    11     6   -13    14 

Output:

   20    -3   -11    16   -22    -2    -5    29   -22     4     2     4     4     7     0    -1     5     8    -1    -3    17 
  -19     4    -9    -7     4    -5     9    20   -12    23     8    -9    10    24   -26   -24   -18    -1     3    10    29 
   -3   -14    -2    -1     0    -5   -20    -8     0   -25    22   -15    -9    -5   -15    17     6    22    19   -11    16 
   -4     7    19    -4   -14     2   -28   -10   -11   -11    12    -9     4    -5    -2    -1   -21   -10     0     0     0 
    0     0     6   -15   -15     2   -22   -16   -22   -24   -15   -14   -22    11     2     9    -8    -3     0    -8    12 
   -3     7     0    -4     4    18    22     7     4   -23    -3    12    -1    12   -21    -9    -5   -20     5     2    -5 
    0   -10     1   -14    29    11    -1    -5     6   -18    12    -2   -11   -13     2   -19   -19     7     2   -12    -6 
   -7     7    13   -11    -4   -18    -1    11   -17    15    21   -23    -8    16    10    16     1    -5     0     0     0 
   -5    -1     2    11   -17     6    20    -8     2    30    17    18   -11    -4   -21    -1    27     9     9     8    14 
  -18   -12    -2     8     0   -15    -6    16    10    10   -12   -17   -26    15   -14     8    21     5     1    -4     4 
   -9     3   -11    -3    -7   -22     6   -27     1    -4     0     4    -5    15     9    -1   -13     7     7     0     5 
  -12    -8   -15    13   -20     8   -15    -7    -4   -17    -2     1   -27     3   -13     1    -9   -20     0     0     0 
   13    -1    20    -6   -14   -30     7     5   -20     0    -4    -7    -1    -2    -4   -11    -3    -9   -15   -21    12 
   25   -22    16   -13   -14    -5     2    12    14     7    18   -15   -17     8   -16    -1   -11   -27     1   -11     0 
    3   -16     4   -10     9     2    15   -19    -8     2   -28     0     9   -13    12   -11    -2     1     4    -5    13 
    8    -3     9     6    -9    -1   -27   -11    -4    14    -9    -2    23   -10     2   -11    16   -18     0     0     0 
  -20   -14    10    -2    -8   -10    14   -17     0     0    12    12   -20    -2    26    -7     2   -23    -8    12   -11 
   -7    29     1    10   -28    -2    -4   -24    12     7    -9    18     6   -19   -19    -6    15    20   -20   -24    14 
   -7     0    21    -5   -10    24    -5   -13   -21   -13    11     9    -5    -6    10    -1    -5    -1   -19     2    -4 
    3    22    -2   -20     2   -23    13     3   -13    -9     1   -30     6     2   -10    -2    17   -11     0     0     0 
    1   -12     5   -15   -14   -18    -6     7    -5     7     1    25   -27    -7    -8    -4   -15    -3     1    -5     4 



testbench_max_pool_d8  

Matrix A, filter is 2x2:

    9    -6    15    10     0     9    -7   -15     3     0    -6    -1    -6     3    13     9 
    5    -5   -14     6    13   -11    -7    10    13    -2    14    -2    -6     6     6   -14 
   -7    -1   -12     7    12    -6   -13     6   -16    10   -14    -9    -2   -14    -1     4 
  -13    11     0     1     8     3    15    -1     4    -9     8    12   -16     1    -2    -2 
  -15   -15     7     5    -5     4    -1     4    14     5   -12   -11     5    -5   -15   -14 
  -13    -3    -3   -10    15     1    -7     2     0     4    11    -5    14    -1    13    -7 
    8     9    15     8   -10    14    -3    10   -11    -3   -14     0    -6    12    12    -9 
   -9    -1   -11   -13     6   -14     7   -13     6    12     5   -14     7    -3     1     9 
    5    10    -1     9    12   -11    10   -14    -2     4     8    12    -8   -11    13    -1 
  -13    13     5    -6    -5     2    -3    -7     8    -2   -16    -2    -3    12    13     4 
   -2    10     6    11    -9    12    12     4    -3    -9     6    11     8   -13    10   -15 
  -11    -9    15   -15    -1     7     0   -11     5    -9     7     8     1    -4    -7    11 
  -15    -8    -7    -9   -14     6     2   -14     0     6     1    10    -1   -14     7    12 
    4    11     2    -5    10     9     2    -4     3     9    12    10    14    -1   -15    -3 
    7    -2     5     9    -2    -7   -16     8   -16   -11    -1     1    -2   -11     3    -9 
    2   -12    12    14   -12     8    -9     9   -14     1    -3     8     8   -16   -16   -16 

Output:

    9    15    13    10    13    14     6    13 
   11     7    12    15    10    12     1     4 
   -3     7    15     4    14    11    14    13 
    9    15    14    10    12     5    12    12 
   13     9    12    10     8    12    12    13 
   10    15    12    12     5    11     8    11 
   11     2    10     2     9    12    14    12 
    7    14     8     9     1     8     8     3 



testbench_avg_pool_d8  

Matrix A, filter is 2x2:

  -15    13    -3    14    -5     8   -15     5    11    10     7    12    14    -7     3    -7 
    5     7     6    11   -10     2    -6   -12     7    10    -2     4    -5    -5   -15     2 
    2    -1     3   -10     9     5    -2   -15     4    11    14     0    -3     0     2    15 
   -8     5     1    14     4    -9     1    11    -6    -9     8   -12    -8     0    -6   -12 
  -12    -4    -5     9     3    -7     4   -14     0     9     4     2    -2   -14    -2     3 
   -9     1    -9    11   -15   -13     8     2     6     9   -10    -7   -11    -7    14    -1 
   -1     4    -6     3     2    11    12     3   -11     2     4    -5     7     7     8     0 
  -16     9    -7    -2    10    15     3   -16     3   -15   -11   -14     5     3    -8     6 
   -5   -13    13     1   -12     3    13    10     8    14     1   -16    13     9   -15    11 
   -3     7    -8     8   -15    -4     7    -1    10    -6   -14    -8     1     1    -7   -15 
   -2     7    15    -1     1   -15    -9    13    10    -4   -14    -8     5    -2   -10   -12 
    7    12    -7    -5     0     7    -7     5    12    11     4    13    -8     5   -10     3 
   -8     3   -14     9     5    -9     2     8    -8    -1     5   -15     0    11   -14   -15 
   -3   -12     0    -4     4    -5     1    -4    -9   -14     0    -9    -5   -14    10     9 
  -13    -4    14   -12    13     8    -3     5   -11   -16     8   -11     9    -4     7   -15 
   -7    11    -3    13    -2    15   -15   -15    15     8     3   -12   -16     5    13    -6 

Output:

    2     7    -1    -7     9     5     0    -4 
    0     2     2    -1     0     2    -2     0 
   -6     1    -8     0     6    -2    -8     3 
   -1    -3     9     0    -5    -6     5     1 
   -3     3    -7     7     6    -9     6    -6 
    6     0    -1     0     7    -1     0    -7 
   -5    -2    -1     1    -8    -4    -2    -2 
   -3     3     8    -7    -1    -3    -1     0 



testbench_conv2D  

Data:

   15    -8   -15   -13    -6   -12    -4    14    13 
  -10    -6   -14     2     9   -14   -10    -5   -11 
   -2    13    -5     5    -9     4    13   -14     0 
   15   -10    -6     9     5     3    -7    11    12 
   -7    10     3     8   -16    12   -10     1     5 
   -4   -14     3     7   -15    -7     8    -7   -12 
   12   -12    -2   -15    15    -6     1   -14     1 
   11    -9    -1    -4    14     7     2    -9     7 
   15     5     7    -8     1    -9    -3    -4     2 



kernel:

    0     0     0 
    0     1     0 
    0     0     0 

Stride = 3


Output:

   -6     9    -5 
   10   -16     1 
   -9    14    -9 



testbench_conv2D_multiInputChannel  

Data:

Channel:   0                                                                1                                                                2                                                             
   |       -3    -1    -8    -5     6   -12     4   -14     1     9          8    14     4    15   -12    -4    -9    12    -6    12          1     4    -1     4    11   -13     3     9    -3    -5      
   |        8    -2    13     1    -2   -11    13     3   -10    -6          9     3     8     5    -8    -4    -9    -9    14    -6          6   -11    -6    12    -1     3    -9    -9     3     1      
   |       10   -13   -15    -9    -9    15     4    -3     1     4          2   -12    -3    -4    13     1    13   -12    -4    -8         -8    12    -4    12    11    12   -13   -11    -9    -7      
   |        7    -8    -9    -6   -11   -15     1     7   -11     4         -2   -16     0     5    14    -1    13    -7    -9    10        -13    -5   -13     5    -1   -16    -4     1     4    15      
   |        7     4    12   -11   -11     7    15   -12   -12    -6          2    -8    -4   -10   -15     7    -2   -13   -10    -4          5   -15    -9   -16   -15     0     8    15    13     3      
   |      -11    10    -2     6    -7     8   -12     3    -2    -4          8   -14    -1     4    12    -6   -16    11    -7     4        -16    11    -8    -9    -6     4     7   -12    -5    -6      
   |       -4    -2     9     3    -8    10    -1    10     0    -7          0    -2    -3   -16    -1   -13    15     9     9    -3        -15    11    10     9     9     7    -6   -13    -5    -8      
   |       -1    -7   -12    14     8   -11     8    -3   -16     7          5    14    13    -6     0     8    12    -6    12    10        -14     1    14    10     8     4    11    12     8    14      
   |       -5   -11    -4   -10    -3    13    -6     5    -6    15          9   -12    14     0   -13    -4     2    13     0   -14         12    -5     1   -14   -10   -13    14    -7     7     5      
   |      -16    11    -8   -13   -16   -12    -8    15    12    -8        -13     9     8   -10    -3     6    -5    -6    -3   -11         15   -11   -16   -13    -3     9    10   -12    -3   -16      


kernel:

Channel:   0                      1                      2                   
   |        0     0     0          0     0     0          0     0     0      
   |        0     0     0          0     0     0          0     1     0      
   |        0     0     0          0     0     0          0     0     0      


Output:

  -11    -6    12    -1     3    -9    -9     3 
   12    -4    12    11    12   -13   -11    -9 
   -5   -13     5    -1   -16    -4     1     4 
  -15    -9   -16   -15     0     8    15    13 
   11    -8    -9    -6     4     7   -12    -5 
   11    10     9     9     7    -6   -13    -5 
    1    14    10     8     4    11    12     8 
   -5     1   -14   -10   -13    14    -7     7 



testbench_conv2D_multiIOChannel  

Data:

Channel:   0                                        1                                        2                                     
   |      -11   -10    12    -4    -5   -14        -13     3    -5    12     7     9         -8     3    15     6    15     2      
   |        7   -16     4     3    13    11         14   -11     2   -14    12    -7          9     9     5   -10     7    14      
   |       15    -6     8    15    12   -15          3   -14    -5    -4   -16    -5          5   -14    -7    13    15     1      
   |       -6    12    -9    10    12    12          8   -15   -12     5    15    -6         11     0     7     2    12    11      
   |      -16    -4     3     8     8   -10         12     4     3    -9    11    -5         -8    -8     4   -12    -5     7      
   |       13   -13    11    -5    -2   -10         -5     9   -12     0    13    15         -3    -7     7   -14    -5    10      


kernel:

Batch   0 ------------------------------------------------------------------------------------
Channel:   0                            1                            2                         
   |      -15    11    11    -2         -2    13     5    -7         -5     7    15     6      
   |       10   -10    12   -16         -9    -9    -3     6          3    -8    12    -1      
   |      -14     2    12    -1        -10    13     3   -13         12    11     4     5      
   |       -7     5    -6   -16         -5     6     3     2        -13     1   -13    -6      

Batch   1 ------------------------------------------------------------------------------------
Channel:   0                            1                            2                         
   |       -8    -7    -5    12         11     0     1     3         13     2     5   -11      
   |        3   -11    15     0         11     5     0   -13        -13    -3     6    -4      
   |      -13    13    15    -5         10   -12    -5     4          8     4     5     6      
   |        0   -10    -3    14          1    -9     2    14         -8   -12     0    15      

Batch   2 ------------------------------------------------------------------------------------
Channel:   0                            1                            2                         
   |       -9     3   -11    14        -11     5     7   -14         -6    -7    14     3      
   |      -10     0   -16    -4        -16    -1   -16   -11         -5    -4   -12    13      
   |       -8    -4     0    10          9     1    -4     6          3   -15   -16    -6      
   |       12   -15     2     1          3     6     4   -16         -6   -13    -3   -11      
   -------------------------------------------------------------------------------------------


Output:   

Channel:   0                      1                      2                   
   |     -128   127   127        127   127   127       -128   -59  -128      
   |     -128   127   127        127   127   127        127   -50    10      
   |     -128   127   127       -128  -128   127        127   127  -128      


testbench_conv2D_multiOutputChannel  

Data:

  -16   -11    15   -12    -2 
    5    -9    10    15     1 
   -7   -12   -11    -9    -3 
   11     2    -4   -13     3 
    5   -15   -15     4     6 



kernel:

Channel:   0                      1                      2                      3                   
   |        0     0     0          1     1     1          2     2     2          3     3     3      
   |        0     0     0          1     1     1          2     2     2          3     3     3      
   |        0     0     0          1     1     1          2     2     2          3     3     3      


Output:

Channel:   0                      1                      2                      3                   
   |        0     0     0        -36   -24     4        -72   -48     8       -108   -72    12      
   |        0     0     0        -15   -31   -11        -30   -62   -22        -45   -93   -33      
   |        0     0     0        -46   -73   -42        -92  -128   -84       -128  -128  -126      


testbench_conv2D_depthwise  

Data:

Channel:   0                                                          1                                                          2                                                       
   |        0   -14     4     4   -13     1    11    -6   -12          1    -9    14    -4     9     0    13   -16    14        -16     7   -16     2     7     7    11    -9    -3      
   |       -8     3   -15    -7     7    11   -11    -8   -11          7     1     5    -3    -6    -1    -6     7    15         -1    -9   -16     1    12    -3   -15     1    -1      
   |        5   -16     4    -3     1     8     5    10     3          3     5    13    -3   -13   -11     2    15    10          1    -8     9     4     3   -12    14     8    -5      
   |        0     8   -15    -2   -11    13    -6   -11    -3         -6    14     0    15    12     1     4     4    10        -14    12   -13    14    -1   -12   -10     9    12      
   |       -7    -2   -12    -6    -5    15    -8     7     8         14     0    12   -15   -10    14    -8     1     4          5     4     2     7     3    11   -16     3    13      
   |        4    15   -12    15     2    -9   -14    -9     9         -5     3    -4    -1    -9   -10    -9   -15     4          0   -11   -15     4     3    -9     4     7   -11      
   |      -13   -10   -10     3     3    -9    -3   -11    -3          1    -7    -2     2    -6    10   -12     2   -13         -9     2    -2    -8     3    -5     6    -5    13      
   |      -16   -11    -7    -5    12     7     4    -9    13         -5     0    15     0    15     6   -13   -11    -1         -5    -4    11   -11   -15     3    14   -11   -15      
   |      -13    -5   -11   -13   -13    -2    -1    -9     0          9     6   -10    -6    10     0   -13    -9    -2        -14   -11   -12    14   -15     6    -9    12     6      


kernel:

Channel:   0                      1                      2                   
   |        0     0     0          0     0     0          0     0     0      
   |        0     1     0          0     1     0          0     1     0      
   |        0     0     0          0     0     0          0     0     0      


Output:

Channel:   0                                              1                                              2                                           
   |        3   -15    -7     7    11   -11    -8          1     5    -3    -6    -1    -6     7         -9   -16     1    12    -3   -15     1      
   |      -16     4    -3     1     8     5    10          5    13    -3   -13   -11     2    15         -8     9     4     3   -12    14     8      
   |        8   -15    -2   -11    13    -6   -11         14     0    15    12     1     4     4         12   -13    14    -1   -12   -10     9      
   |       -2   -12    -6    -5    15    -8     7          0    12   -15   -10    14    -8     1          4     2     7     3    11   -16     3      
   |       15   -12    15     2    -9   -14    -9          3    -4    -1    -9   -10    -9   -15        -11   -15     4     3    -9     4     7      
   |      -10   -10     3     3    -9    -3   -11         -7    -2     2    -6    10   -12     2          2    -2    -8     3    -5     6    -5      
   |      -11    -7    -5    12     7     4    -9          0    15     0    15     6   -13   -11         -4    11   -11   -15     3    14   -11      


testbench_conv2D_depthwiseSeparable  

Data:

Channel:   0                                                          1                                                          2                                                       
   |        1     1    -2    14   -10     5    -6    12     0         13    10    10    -1    -4   -13    -5    -4   -11        -10    -8   -11    -2     9     5     6   -11    -3      
   |        0     4     7     8   -10     7    12     7    -5        -11     3    13    -9    13    -5     3     9   -14         15     3    12    15    15     4   -14    -5    -5      
   |        9    -7     7   -13     5     9    10    11    12          9    15   -12    11    15    -2    -8    -4     9         -6   -14     9     7   -14    -1     3   -13    -4      
   |       -7    15    -6   -11     1    11    -6    15     2         11     4    -6    -5   -10     3    -9   -15     7         13    -1     4    -6     8    12    -9     9     8      
   |      -12    -9    -6   -13   -14     0     7   -10    13         -7    14   -15   -13     1   -13   -13    13    -7         11   -11   -13    -2   -16    -9   -16    12    12      
   |       -7    15   -11   -11    10    -2    15     4   -10          6    -6   -13    -3     8     0     0     0     9         -9   -11   -14    -3     3    -8    -7   -12    14      
   |       -5   -16    -8    -8   -12   -11   -10    15    10          6     4    -1    -8   -10     1     1     3   -10          7     7    -4   -13   -10   -15    15   -15    10      
   |       -3     2    -1   -14    14    10    12    -4    -8         -8    -9    -4    14     6   -13   -13   -11     4         -5     0     8    11    -2     1    11     5     6      
   |       11    12   -10   -10    -8    13    -8    -6    15         -3     9    11     3    -7    -2    -6    15     6          4     9    14    -4   -13    15     0     2   -12      


kernelDepthWise:

Channel:   0                      1                      2                   
   |        0     0     0          0     0     0          0     0     0      
   |        0     1     0          0     1     0          0     1     0      
   |        0     0     0          0     0     0          0     0     0      

kernelPointwise:

    0     1     0 


Output:

    3    13    -9    13    -5     3     9 
   15   -12    11    15    -2    -8    -4 
    4    -6    -5   -10     3    -9   -15 
   14   -15   -13     1   -13   -13    13 
   -6   -13    -3     8     0     0     0 
    4    -1    -8   -10     1     1     3 
   -9    -4    14     6   -13   -13   -11 



testbench_conv2D_depthwiseSeparable_multiOutputChannel  

Data:

Channel:   0                                        1                                        2                                     
   |      -10    -6     2    -7    -1     1          3     0     6    12     6     5          1    -2     1    -5   -12     6      
   |       12     1   -14    15    -9    -6          8     1   -13    11     7   -11         -3    -7   -15     7    13    11      
   |       13     1    10    -2     4     7         -5     0     2    -1    -1     9          8    -9     6   -13    -1    -3      
   |      -13   -13    -6    -5    -5    -2        -13   -12    -5    -8   -16    -1          2     2     0   -11     2    -2      
   |        8   -14     3   -16   -10   -12         -4     7    14    -1    10     7         -5    -5     9    -5    -3    -6      
   |      -11    -9    12    15     7    13         13    10    10    12     3    13         14    -4    13     8   -14    -2      


kernelDepthWise:

Channel:   0                      1                      2                   
   |        0     0     0          0     0     0          0     0     0      
   |        0     1     0          0     1     0          0     1     0      
   |        0     0     0          0     0     0          0     0     0      

kernelPointwise:

    0     0     0 
    1     1     1 
    2     2     2 
    3     3     3 
    4     4     4 
    5     5     5 
    6     6     6 
    7     7     7 
    8     8     8 
    9     9     9 



Output:

Channel:   0                            1                            2                            3                            4                            5                            6                            7                            8                            9                         
   |        0     0     0     0         -5   -42    33    11        -10   -84    66    22        -15  -126    99    33        -20  -128   127    44        -25  -128   127    55        -30  -128   127    66        -35  -128   127    77        -40  -128   127    88        -45  -128   127    99      
   |        0     0     0     0         -8    18   -16     2        -16    36   -32     4        -24    54   -48     6        -32    72   -64     8        -40    90   -80    10        -48   108   -96    12        -56   126  -112    14        -64   127  -128    16        -72   127  -128    18      
   |        0     0     0     0        -23   -11   -24   -19        -46   -22   -48   -38        -69   -33   -72   -57        -92   -44   -96   -76       -115   -55  -120   -95       -128   -66  -128  -114       -128   -77  -128  -128       -128   -88  -128  -128       -128   -99  -128  -128      
   |        0     0     0     0        -12    26   -22    -3        -24    52   -44    -6        -36    78   -66    -9        -48   104   -88   -12        -60   127  -110   -15        -72   127  -128   -18        -84   127  -128   -21        -96   127  -128   -24       -108   127  -128   -27      



 Number of cycles to run just vector_operations: 1350

 Number of cycles to run just matrix/pooling_operations: 122389

 Number of cycles to run just conv2D_operations: 2077311

 Number of cycles to run all NN_operations: 2201050

 Total Number of cycles to run testbenchs: 9846758
TOP.tb_top_verilator @ 98679520: EXIT SUCCESS
- /home/bt/core-v-verif-nvpe/cv32/tb/core/tb_top_verilator.sv:84: Verilog $finish
